[ {
    "id" : "あ",
    "type" : "letter",
    "pronounce" :  "あ" ,
    "concept" : "あ",
    "read" : { "hiragana" : "あ" , "katakana" :  "ア" , "romaji" :  "a" ,"small-hiragana" :"ぁ" , "small-katakana" : "ァ" },
    "tags" : [ "level1" ]
}, {
    "id" : "い",
    "type" : "letter",
    "pronounce" :  "い" ,
    "concept" : "い",
    "read" : { "hiragana" : "い" , "katakana" :  "イ" , "romaji" :  "i" ,"small-hiragana" :"ぃ" , "small-katakana" : "ィ" },
    "tags" : [ "level1" ]
}, {
    "id" : "う",
    "type" : "letter",
    "pronounce" :  "う" ,
    "concept" : "う",
    "read" : { "hiragana" : "う" , "katakana" :  "ウ" , "romaji" :  "u" ,"small-hiragana" :"ぅ" , "small-katakana" : "ゥ" },
    "tags" : [ "level1" ]
}, {
    "id" : "え",
    "type" : "letter",
    "pronounce" :  "え" ,
    "concept" : "え",
    "read" : { "hiragana" : "え" , "katakana" :  "エ" , "romaji" :  "e" ,"small-hiragana" :"ぇ" , "small-katakana" : "ェ" },
    "tags" : [ "level1" ]
}, {
    "id" : "お",
    "type" : "letter",
    "pronounce" :  "お" ,
    "concept" : "お",
    "read" : { "hiragana" : "お" , "katakana" :  "オ" , "romaji" :  "o" ,"small-hiragana" :"ぉ" , "small-katakana" : "ォ" },
    "tags" : [ "level1" ]
}, {
    "id" : "か",
    "type" : "letter",
    "pronounce" :  "か" ,
    "concept" : "か",
    "read" : { "hiragana" : "か" , "katakana" :  "カ" , "romaji" :  "ka" ,"small-hiragana" :"ゕ" , "small-katakana" : "ヵ" },
    "tags" : [ "level1" ]
}, {
    "id" : "き",
    "type" : "letter",
    "pronounce" :  "き" ,
    "concept" : "き",
    "read" : { "hiragana" : "き" , "katakana" :  "キ" , "romaji" :  "ki" },
    "tags" : [ "level1" ]
}, {
    "id" : "く",
    "type" : "letter",
    "pronounce" :  "く" ,
    "concept" : "く",
    "read" : { "hiragana" : "く" , "katakana" :  "ク" , "romaji" :  "ku" },
    "tags" : [ "level1" ]
}, {
    "id" : "け",
    "type" : "letter",
    "pronounce" :  "け" ,
    "concept" : "け",
    "read" : { "hiragana" : "け" , "katakana" :  "ケ" , "romaji" :  "ke" ,"small-hiragana" :"ゖ" , "small-katakana" : "ヶ" },
    "tags" : [ "level1" ]
}, {
    "id" : "こ",
    "type" : "letter",
    "pronounce" :  "こ" ,
    "concept" : "こ",
    "read" : { "hiragana" : "こ" , "katakana" :  "コ" , "romaji" :  "ko" },
    "tags" : [ "level1" ]
}, {
    "id" : "さ",
    "type" : "letter",
    "pronounce" :  "さ" ,
    "concept" : "さ",
    "read" : { "hiragana" : "さ" , "katakana" :  "サ" , "romaji" :  "sa" },
    "tags" : [ "level1" ]
}, {
    "id" : "し",
    "type" : "letter",
    "pronounce" :  "し" ,
    "concept" : "し",
    "read" : { "hiragana" : "し" , "katakana" :  "シ" , "romaji" :  "shi" },
    "tags" : [ "level1" ]
}, {
    "id" : "す",
    "type" : "letter",
    "pronounce" :  "す" ,
    "concept" : "す",
    "read" : { "hiragana" : "す" , "katakana" :  "ス" , "romaji" :  "su" },
    "tags" : [ "level1" ]
}, {
    "id" : "せ",
    "type" : "letter",
    "pronounce" :  "せ" ,
    "concept" : "せ",
    "read" : { "hiragana" : "せ" , "katakana" :  "セ" , "romaji" :  "se" },
    "tags" : [ "level1" ]
}, {
    "id" : "そ",
    "type" : "letter",
    "pronounce" :  "そ" ,
    "concept" : "そ",
    "read" : { "hiragana" : "そ" , "katakana" :  "ソ" , "romaji" :  "so" },
    "tags" : [ "level1" ]
}, {
    "id" : "た",
    "type" : "letter",
    "pronounce" :  "た" ,
    "concept" : "た",
    "read" : { "hiragana" : "た" , "katakana" :  "タ" , "romaji" :  "ta" },
    "tags" : [ "level1" ]
}, {
    "id" : "ち",
    "type" : "letter",
    "pronounce" :  "ち" ,
    "concept" : "ち",
    "read" : { "hiragana" : "ち" , "katakana" :  "チ" , "romaji" :  "chi" },
    "tags" : [ "level1" ]
}, {
    "id" : "つ",
    "type" : "letter",
    "pronounce" :  "つ" ,
    "concept" : "つ",
    "read" : { "hiragana" : "つ" , "katakana" :  "ツ" , "romaji" :  "tsu" ,"small-hiragana" :"っ" , "small-katakana" : "ッ" },
    "tags" : [ "level1" ]
}, {
    "id" : "て",
    "type" : "letter",
    "pronounce" :  "て" ,
    "concept" : "て",
    "read" : { "hiragana" : "て" , "katakana" :  "テ" , "romaji" :  "te" },
    "tags" : [ "level1" ]
}, {
    "id" : "と",
    "type" : "letter",
    "pronounce" :  "と" ,
    "concept" : "と",
    "read" : { "hiragana" : "と" , "katakana" :  "ト" , "romaji" :  "to" },
    "tags" : [ "level1" ]
}, {
    "id" : "な",
    "type" : "letter",
    "pronounce" :  "な" ,
    "concept" : "な",
    "read" : { "hiragana" : "な" , "katakana" :  "ナ" , "romaji" :  "na" },
    "tags" : [ "level1" ]
}, {
    "id" : "に",
    "type" : "letter",
    "pronounce" :  "に" ,
    "concept" : "に",
    "read" : { "hiragana" : "に" , "katakana" :  "ニ" , "romaji" :  "ni" },
    "tags" : [ "level1" ]
}, {
    "id" : "ぬ",
    "type" : "letter",
    "pronounce" :  "ぬ" ,
    "concept" : "ぬ",
    "read" : { "hiragana" : "ぬ" , "katakana" :  "ヌ" , "romaji" :  "nu" },
    "tags" : [ "level1" ]
}, {
    "id" : "ね",
    "type" : "letter",
    "pronounce" :  "ね" ,
    "concept" : "ね",
    "read" : { "hiragana" : "ね" , "katakana" :  "ネ" , "romaji" :  "ne" },
    "tags" : [ "level1" ]
}, {
    "id" : "の",
    "type" : "letter",
    "pronounce" :  "の" ,
    "concept" : "の",
    "read" : { "hiragana" : "の" , "katakana" :  "ノ" , "romaji" :  "no" },
    "tags" : [ "level1" ]
}, {
    "id" : "は",
    "type" : "letter",
    "pronounce" :  "は" ,
    "concept" : "は",
    "read" : { "hiragana" : "は" , "katakana" :  "ハ" , "romaji" :  "ha" },
    "tags" : [ "level1" ]
}, {
    "id" : "ひ",
    "type" : "letter",
    "pronounce" :  "ひ" ,
    "concept" : "ひ",
    "read" : { "hiragana" : "ひ" , "katakana" :  "ヒ" , "romaji" :  "hi" },
    "tags" : [ "level1" ]
}, {
    "id" : "ふ",
    "type" : "letter",
    "pronounce" :  "ふ" ,
    "concept" : "ふ",
    "read" : { "hiragana" : "ふ" , "katakana" :  "フ" , "romaji" :  "fu" },
    "tags" : [ "level1" ]
}, {
    "id" : "へ",
    "type" : "letter",
    "pronounce" :  "へ" ,
    "concept" : "へ",
    "read" : { "hiragana" : "へ" , "katakana" :  "ヘ" , "romaji" :  "he" },
    "tags" : [ "level1" ]
}, {
    "id" : "ほ",
    "type" : "letter",
    "pronounce" :  "ほ" ,
    "concept" : "ほ",
    "read" : { "hiragana" : "ほ" , "katakana" :  "ホ" , "romaji" :  "ho" },
    "tags" : [ "level1" ]
}, {
    "id" : "ま",
    "type" : "letter",
    "pronounce" :  "ま" ,
    "concept" : "ま",
    "read" : { "hiragana" : "ま" , "katakana" :  "マ" , "romaji" :  "ma" },
    "tags" : [ "level1" ]
}, {
    "id" : "み",
    "type" : "letter",
    "pronounce" :  "み" ,
    "concept" : "み",
    "read" : { "hiragana" : "み" , "katakana" :  "ミ" , "romaji" :  "mi" },
    "tags" : [ "level1" ]
}, {
    "id" : "む",
    "type" : "letter",
    "pronounce" :  "む" ,
    "concept" : "む",
    "read" : { "hiragana" : "む" , "katakana" :  "ム" , "romaji" :  "mu" },
    "tags" : [ "level1" ]
}, {
    "id" : "め",
    "type" : "letter",
    "pronounce" :  "め" ,
    "concept" : "め",
    "read" : { "hiragana" : "め" , "katakana" :  "メ" , "romaji" :  "me" },
    "tags" : [ "level1" ]
}, {
    "id" : "も",
    "type" : "letter",
    "pronounce" :  "も" ,
    "concept" : "も",
    "read" : { "hiragana" : "も" , "katakana" :  "モ" , "romaji" :  "mo" },
    "tags" : [ "level1" ]
}, {
    "id" : "や",
    "type" : "letter",
    "pronounce" :  "や" ,
    "concept" : "や",
    "read" : { "hiragana" : "や" , "katakana" :  "ヤ" , "romaji" :  "ya" ,"small-hiragana" :"ゃ" , "small-katakana" : "ャ" },
    "tags" : [ "level1" ]
}, {
    "id" : "ゆ",
    "type" : "letter",
    "pronounce" :  "ゆ" ,
    "concept" : "ゆ",
    "read" : { "hiragana" : "ゆ" , "katakana" :  "ユ" , "romaji" :  "yu" ,"small-hiragana" :"ゅ" , "small-katakana" : "ュ" },
    "tags" : [ "level1" ]
}, {
    "id" : "よ",
    "type" : "letter",
    "pronounce" :  "よ" ,
    "concept" : "よ",
    "read" : { "hiragana" : "よ" , "katakana" :  "ヨ" , "romaji" :  "yo" ,"small-hiragana" :"ょ" , "small-katakana" : "ョ" },
    "tags" : [ "level1" ]
}, {
    "id" : "ら",
    "type" : "letter",
    "pronounce" :  "ら" ,
    "concept" : "ら",
    "read" : { "hiragana" : "ら" , "katakana" :  "ラ" , "romaji" :  "ra" },
    "tags" : [ "level1" ]
}, {
    "id" : "り",
    "type" : "letter",
    "pronounce" :  "り" ,
    "concept" : "り",
    "read" : { "hiragana" : "り" , "katakana" :  "リ" , "romaji" :  "ri" },
    "tags" : [ "level1" ]
}, {
    "id" : "る",
    "type" : "letter",
    "pronounce" :  "る" ,
    "concept" : "る",
    "read" : { "hiragana" : "る" , "katakana" :  "ル" , "romaji" :  "ru" },
    "tags" : [ "level1" ]
}, {
    "id" : "れ",
    "type" : "letter",
    "pronounce" :  "れ" ,
    "concept" : "れ",
    "read" : { "hiragana" : "れ" , "katakana" :  "レ" , "romaji" :  "re" },
    "tags" : [ "level1" ]
}, {
    "id" : "ろ",
    "type" : "letter",
    "pronounce" :  "ろ" ,
    "concept" : "ろ",
    "read" : { "hiragana" : "ろ" , "katakana" :  "ロ" , "romaji" :  "ro" },
    "tags" : [ "level1" ]
}, {
    "id" : "わ",
    "type" : "letter",
    "pronounce" :  "わ" ,
    "concept" : "わ",
    "read" : { "hiragana" : "わ" , "katakana" :  "ワ" , "romaji" :  "wa" ,"small-hiragana" :"ゎ" , "small-katakana" : "ヮ" },
    "tags" : [ "level1" ]
}, {
    "id" : "を",
    "type" : "letter",
    "pronounce" :  "お" ,
    "concept" : "を",
    "read" : { "hiragana" : "を" , "katakana" :  "ヲ" , "romaji" :  "o" },
    "tags" : [ "level1" ]
}, {
    "id" : "ん",
    "type" : "letter",
    "pronounce" :  "ん" ,
    "concept" : "ん",
    "read" : { "hiragana" : "ん" , "katakana" :  "ン" , "romaji" :  "n" },
    "tags" : [ "level1" ]
}, {
    "id" : "が",
    "type" : "letter",
    "pronounce" :  "が" ,
    "concept" : "が",
    "read" : { "hiragana" : "が" , "katakana" :  "ガ" , "romaji" :  "ga" },
    "tags" : [ "level2" ]
}, {
    "id" : "ぎ",
    "type" : "letter",
    "pronounce" :  "ぎ" ,
    "concept" : "ぎ",
    "read" : { "hiragana" : "ぎ" , "katakana" :  "ギ" , "romaji" :  "gi" },
    "tags" : [ "level2" ]
}, {
    "id" : "ぐ",
    "type" : "letter",
    "pronounce" :  "ぐ" ,
    "concept" : "ぐ",
    "read" : { "hiragana" : "ぐ" , "katakana" :  "グ" , "romaji" :  "gu" },
    "tags" : [ "level2" ]
}, {
    "id" : "げ",
    "type" : "letter",
    "pronounce" :  "げ" ,
    "concept" : "げ",
    "read" : { "hiragana" : "げ" , "katakana" :  "ゲ" , "romaji" :  "ge" },
    "tags" : [ "level2" ]
}, {
    "id" : "ご",
    "type" : "letter",
    "pronounce" :  "ご" ,
    "concept" : "ご",
    "read" : { "hiragana" : "ご" , "katakana" :  "ゴ" , "romaji" :  "go" },
    "tags" : [ "level2" ]
}, {
    "id" : "ざ",
    "type" : "letter",
    "pronounce" :  "ざ" ,
    "concept" : "ざ",
    "read" : { "hiragana" : "ざ" , "katakana" :  "ザ" , "romaji" :  "za" },
    "tags" : [ "level2" ]
}, {
    "id" : "じ",
    "type" : "letter",
    "pronounce" :  "じ" ,
    "concept" : "じ",
    "read" : { "hiragana" : "じ" , "katakana" :  "ジ" , "romaji" :  "ji" },
    "tags" : [ "level2" ]
}, {
    "id" : "ず",
    "type" : "letter",
    "pronounce" :  "ず" ,
    "concept" : "ず",
    "read" : { "hiragana" : "ず" , "katakana" :  "ズ" , "romaji" :  "zu" },
    "tags" : [ "level2" ]
}, {
    "id" : "ぜ",
    "type" : "letter",
    "pronounce" :  "ぜ" ,
    "concept" : "ぜ",
    "read" : { "hiragana" : "ぜ" , "katakana" :  "ゼ" , "romaji" :  "ze" },
    "tags" : [ "level2" ]
}, {
    "id" : "ぞ",
    "type" : "letter",
    "pronounce" :  "ぞ" ,
    "concept" : "ぞ",
    "read" : { "hiragana" : "ぞ" , "katakana" :  "ゾ" , "romaji" :  "zo" },
    "tags" : [ "level2" ]
}, {
    "id" : "だ",
    "type" : "letter",
    "pronounce" :  "だ" ,
    "concept" : "だ",
    "read" : { "hiragana" : "だ" , "katakana" :  "ダ" , "romaji" :  "da" },
    "tags" : [ "level2" ]
}, {
    "id" : "ぢ",
    "type" : "letter",
    "pronounce" :  "じ" ,
    "concept" : "ぢ",
    "read" : { "hiragana" : "ぢ" , "katakana" :  "ヂ" , "romaji" :  "ji" },
    "tags" : [ "level2" ]
}, {
    "id" : "づ",
    "type" : "letter",
    "pronounce" :  "づ" ,
    "concept" : "づ",
    "read" : { "hiragana" : "づ" , "katakana" :  "ヅ" , "romaji" :  "zu" },
    "tags" : [ "level2" ]
}, {
    "id" : "で",
    "type" : "letter",
    "pronounce" :  "で" ,
    "concept" : "で",
    "read" : { "hiragana" : "で" , "katakana" :  "デ" , "romaji" :  "de" },
    "tags" : [ "level2" ]
}, {
    "id" : "ど",
    "type" : "letter",
    "pronounce" :  "ど" ,
    "concept" : "ど",
    "read" : { "hiragana" : "ど" , "katakana" :  "ド" , "romaji" :  "do" },
    "tags" : [ "level2" ]
}, {
    "id" : "ば",
    "type" : "letter",
    "pronounce" :  "ば" ,
    "concept" : "ば",
    "read" : { "hiragana" : "ば" , "katakana" :  "バ" , "romaji" :  "ba" },
    "tags" : [ "level2" ]
}, {
    "id" : "び",
    "type" : "letter",
    "pronounce" :  "び" ,
    "concept" : "び",
    "read" : { "hiragana" : "び" , "katakana" :  "ビ" , "romaji" :  "bi" },
    "tags" : [ "level2" ]
}, {
    "id" : "ぶ",
    "type" : "letter",
    "pronounce" :  "ぶ" ,
    "concept" : "ぶ",
    "read" : { "hiragana" : "ぶ" , "katakana" :  "ブ" , "romaji" :  "bu" },
    "tags" : [ "level2" ]
}, {
    "id" : "べ",
    "type" : "letter",
    "pronounce" :  "べ" ,
    "concept" : "べ",
    "read" : { "hiragana" : "べ" , "katakana" :  "ベ" , "romaji" :  "be" },
    "tags" : [ "level2" ]
}, {
    "id" : "ぼ",
    "type" : "letter",
    "pronounce" :  "ぼ" ,
    "concept" : "ぼ",
    "read" : { "hiragana" : "ぼ" , "katakana" :  "ボ" , "romaji" :  "bo" },
    "tags" : [ "level2" ]
}, {
    "id" : "ぱ",
    "type" : "letter",
    "pronounce" :  "ぱ" ,
    "concept" : "ぱ",
    "read" : { "hiragana" : "ぱ" , "katakana" :  "パ" , "romaji" :  "pa" },
    "tags" : [ "level2" ]
}, {
    "id" : "ぴ",
    "type" : "letter",
    "pronounce" :  "ぴ" ,
    "concept" : "ぴ",
    "read" : { "hiragana" : "ぴ" , "katakana" :  "ピ" , "romaji" :  "pi" },
    "tags" : [ "level2" ]
}, {
    "id" : "ぷ",
    "type" : "letter",
    "pronounce" :  "ぷ" ,
    "concept" : "ぷ",
    "read" : { "hiragana" : "ぷ" , "katakana" :  "プ" , "romaji" :  "pu" },
    "tags" : [ "level2" ]
}, {
    "id" : "ぺ",
    "type" : "letter",
    "pronounce" :  "ぺ" ,
    "concept" : "ぺ",
    "read" : { "hiragana" : "ぺ" , "katakana" :  "ペ" , "romaji" :  "pe" },
    "tags" : [ "level2" ]
}, {
    "id" : "ぽ",
    "type" : "letter",
    "pronounce" :  "ぽ" ,
    "concept" : "ぽ",
    "read" : { "hiragana" : "ぽ" , "katakana" :  "ポ" , "romaji" :  "po" },
    "tags" : [ "level2" ]
}, {
    "id" : "きゃ",
    "type" : "letter",
    "pronounce" :  "きゃ" ,
    "concept" : "きゃ",
    "read" : { "hiragana" : "きゃ" , "katakana" :  "キャ" , "romaji" :  "kya" },
    "tags" : [ "level3" ]
}, {
    "id" : "きゅ",
    "type" : "letter",
    "pronounce" :  "きゅ" ,
    "concept" : "きゅ",
    "read" : { "hiragana" : "きゅ" , "katakana" :  "キュ" , "romaji" :  "kyu" },
    "tags" : [ "level3" ]
}, {
    "id" : "きょ",
    "type" : "letter",
    "pronounce" :  "きょ" ,
    "concept" : "きょ",
    "read" : { "hiragana" : "きょ" , "katakana" :  "キョ" , "romaji" :  "kyo" },
    "tags" : [ "level3" ]
}, {
    "id" : "しゃ",
    "type" : "letter",
    "pronounce" :  "しゃ" ,
    "concept" : "しゃ",
    "read" : { "hiragana" : "しゃ" , "katakana" :  "シャ" , "romaji" :  "sha" },
    "tags" : [ "level3" ]
}, {
    "id" : "しゅ",
    "type" : "letter",
    "pronounce" :  "しゅ" ,
    "concept" : "しゅ",
    "read" : { "hiragana" : "しゅ" , "katakana" :  "シュ" , "romaji" :  "shu" },
    "tags" : [ "level3" ]
}, {
    "id" : "しょ",
    "type" : "letter",
    "pronounce" :  "しょ" ,
    "concept" : "しょ",
    "read" : { "hiragana" : "しょ" , "katakana" :  "ショ" , "romaji" :  "sho" },
    "tags" : [ "level3" ]
}, {
    "id" : "ちゃ",
    "type" : "letter",
    "pronounce" :  "ちゃ" ,
    "concept" : "ちゃ",
    "read" : { "hiragana" : "ちゃ" , "katakana" :  "チャ" , "romaji" :  "cha" },
    "tags" : [ "level3" ]
}, {
    "id" : "ちゅ",
    "type" : "letter",
    "pronounce" :  "ちゅ" ,
    "concept" : "ちゅ",
    "read" : { "hiragana" : "ちゅ" , "katakana" :  "チュ" , "romaji" :  "chu" },
    "tags" : [ "level3" ]
}, {
    "id" : "ちょ",
    "type" : "letter",
    "pronounce" :  "ちょ" ,
    "concept" : "ちょ",
    "read" : { "hiragana" : "ちょ" , "katakana" :  "チョ" , "romaji" :  "cho" },
    "tags" : [ "level3" ]
}, {
    "id" : "にゃ",
    "type" : "letter",
    "pronounce" :  "にゃ" ,
    "concept" : "にゃ",
    "read" : { "hiragana" : "にゃ" , "katakana" :  "ニャ" , "romaji" :  "nya" },
    "tags" : [ "level3" ]
}, {
    "id" : "にゅ",
    "type" : "letter",
    "pronounce" :  "にゅ" ,
    "concept" : "にゅ",
    "read" : { "hiragana" : "にゅ" , "katakana" :  "ニュ" , "romaji" :  "nyu" },
    "tags" : [ "level3" ]
}, {
    "id" : "にょ",
    "type" : "letter",
    "pronounce" :  "にょ" ,
    "concept" : "にょ",
    "read" : { "hiragana" : "にょ" , "katakana" :  "ニョ" , "romaji" :  "nyo" },
    "tags" : [ "level3" ]
}, {
    "id" : "ひゃ",
    "type" : "letter",
    "pronounce" :  "ひゃ" ,
    "concept" : "ひゃ",
    "read" : { "hiragana" : "ひゃ" , "katakana" :  "ヒャ" , "romaji" :  "hya" },
    "tags" : [ "level3" ]
}, {
    "id" : "ひゅ",
    "type" : "letter",
    "pronounce" :  "ひゅ" ,
    "concept" : "ひゅ",
    "read" : { "hiragana" : "ひゅ" , "katakana" :  "ヒュ" , "romaji" :  "hyu" },
    "tags" : [ "level3" ]
}, {
    "id" : "ひょ",
    "type" : "letter",
    "pronounce" :  "ひょ" ,
    "concept" : "ひょ",
    "read" : { "hiragana" : "ひょ" , "katakana" :  "ヒョ" , "romaji" :  "hyo" },
    "tags" : [ "level3" ]
}, {
    "id" : "みゃ",
    "type" : "letter",
    "pronounce" :  "みゃ" ,
    "concept" : "みゃ",
    "read" : { "hiragana" : "みゃ" , "katakana" :  "ミャ" , "romaji" :  "mya" },
    "tags" : [ "level3" ]
}, {
    "id" : "みゅ",
    "type" : "letter",
    "pronounce" :  "みゅ" ,
    "concept" : "みゅ",
    "read" : { "hiragana" : "みゅ" , "katakana" :  "ミュ" , "romaji" :  "myu" },
    "tags" : [ "level3" ]
}, {
    "id" : "みょ",
    "type" : "letter",
    "pronounce" :  "みょ" ,
    "concept" : "みょ",
    "read" : { "hiragana" : "みょ" , "katakana" :  "ミョ" , "romaji" :  "myo" },
    "tags" : [ "level3" ]
}, {
    "id" : "りゃ",
    "type" : "letter",
    "pronounce" :  "りゃ" ,
    "concept" : "りゃ",
    "read" : { "hiragana" : "りゃ" , "katakana" :  "リャ" , "romaji" :  "rya" },
    "tags" : [ "level3" ]
}, {
    "id" : "りゅ",
    "type" : "letter",
    "pronounce" :  "りゅ" ,
    "concept" : "りゅ",
    "read" : { "hiragana" : "りゅ" , "katakana" :  "リュ" , "romaji" :  "ryu" },
    "tags" : [ "level3" ]
}, {
    "id" : "りょ",
    "type" : "letter",
    "pronounce" :  "りょ" ,
    "concept" : "りょ",
    "read" : { "hiragana" : "りょ" , "katakana" :  "リョ" , "romaji" :  "ryo" },
    "tags" : [ "level3" ]
}, {
    "id" : "ぎゃ",
    "type" : "letter",
    "pronounce" :  "ぎゃ" ,
    "concept" : "ぎゃ",
    "read" : { "hiragana" : "ぎゃ" , "katakana" :  "ギャ" , "romaji" :  "gya" },
    "tags" : [ "level3" ]
}, {
    "id" : "ぎゅ",
    "type" : "letter",
    "pronounce" :  "ぎゅ" ,
    "concept" : "ぎゅ",
    "read" : { "hiragana" : "ぎゅ" , "katakana" :  "ギュ" , "romaji" :  "gyu" },
    "tags" : [ "level3" ]
}, {
    "id" : "ぎょ",
    "type" : "letter",
    "pronounce" :  "ぎょ" ,
    "concept" : "ぎょ",
    "read" : { "hiragana" : "ぎょ" , "katakana" :  "ギョ" , "romaji" :  "gyo" },
    "tags" : [ "level3" ]
}, {
    "id" : "じゃ",
    "type" : "letter",
    "pronounce" :  "じゃ" ,
    "concept" : "じゃ",
    "read" : { "hiragana" : "じゃ" , "katakana" :  "ジャ" , "romaji" :  "ja" },
    "tags" : [ "level3" ]
}, {
    "id" : "じゅ",
    "type" : "letter",
    "pronounce" :  "じゅ" ,
    "concept" : "じゅ",
    "read" : { "hiragana" : "じゅ" , "katakana" :  "ジュ" , "romaji" :  "ju" },
    "tags" : [ "level3" ]
}, {
    "id" : "じょ",
    "type" : "letter",
    "pronounce" :  "じょ" ,
    "concept" : "じょ",
    "read" : { "hiragana" : "じょ" , "katakana" :  "ジョ" , "romaji" :  "jo" },
    "tags" : [ "level3" ]
}, {
    "id" : "ぢゃ",
    "type" : "letter",
    "pronounce" :  "じゃ" ,
    "concept" : "ぢゃ",
    "read" : { "hiragana" : "ぢゃ" , "katakana" :  "ヂャ" , "romaji" :  "ja" },
    "tags" : [ "level3" ]
}, {
    "id" : "ぢゅ",
    "type" : "letter",
    "pronounce" :  "じゅ" ,
    "concept" : "ぢゅ",
    "read" : { "hiragana" : "ぢゅ" , "katakana" :  "ヂュ" , "romaji" :  "ju" },
    "tags" : [ "level3" ]
}, {
    "id" : "ぢょ",
    "type" : "letter",
    "pronounce" :  "じょ" ,
    "concept" : "ぢょ",
    "read" : { "hiragana" : "ぢょ" , "katakana" :  "ヂョ" , "romaji" :  "jo" },
    "tags" : [ "level3" ]
}, {
    "id" : "びゃ",
    "type" : "letter",
    "pronounce" :  "びゃ" ,
    "concept" : "びゃ",
    "read" : { "hiragana" : "びゃ" , "katakana" :  "ビャ" , "romaji" :  "bya" },
    "tags" : [ "level3" ]
}, {
    "id" : "びゅ",
    "type" : "letter",
    "pronounce" :  "びゅ" ,
    "concept" : "びゅ",
    "read" : { "hiragana" : "びゅ" , "katakana" :  "ビュ" , "romaji" :  "byu" },
    "tags" : [ "level3" ]
}, {
    "id" : "びょ",
    "type" : "letter",
    "pronounce" :  "びょ" ,
    "concept" : "びょ",
    "read" : { "hiragana" : "びょ" , "katakana" :  "ビョ" , "romaji" :  "byo" },
    "tags" : [ "level3" ]
}, {
    "id" : "ぴゃ",
    "type" : "letter",
    "pronounce" :  "ぴゃ" ,
    "concept" : "ぴゃ",
    "read" : { "hiragana" : "ぴゃ" , "katakana" :  "ピャ" , "romaji" :  "pya" },
    "tags" : [ "level3" ]
}, {
    "id" : "ぴゅ",
    "type" : "letter",
    "pronounce" :  "ぴゅ" ,
    "concept" : "ぴゅ",
    "read" : { "hiragana" : "ぴゅ" , "katakana" :  "ピュ" , "romaji" :  "pyu" },
    "tags" : [ "level3" ]
}, {
    "id" : "ぴょ",
    "type" : "letter",
    "pronounce" :  "ぴょ" ,
    "concept" : "ぴょ",
    "read" : { "hiragana" : "ぴょ" , "katakana" :  "ピョ" , "romaji" :  "pyo" },
    "tags" : [ "level3" ]
} ]