#id,type,pronounce,concept,read/hiragana,read/katakana,read/romaji,read/small-hiragana,read/small-katakana,tags/0
あ,letter,あ,あ,あ,ア,a,ぁ,ァ,level1
い,letter,い,い,い,イ,i,ぃ,ィ,level1
う,letter,う,う,う,ウ,u,ぅ,ゥ,level1
え,letter,え,え,え,エ,e,ぇ,ェ,level1
お,letter,お,お,お,オ,o,ぉ,ォ,level1
か,letter,か,か,か,カ,ka,ゕ,ヵ,level1
き,letter,き,き,き,キ,ki,,,level1
く,letter,く,く,く,ク,ku,,,level1
け,letter,け,け,け,ケ,ke,ゖ,ヶ,level1
こ,letter,こ,こ,こ,コ,ko,,,level1
さ,letter,さ,さ,さ,サ,sa,,,level1
し,letter,し,し,し,シ,shi,,,level1
す,letter,す,す,す,ス,su,,,level1
せ,letter,せ,せ,せ,セ,se,,,level1
そ,letter,そ,そ,そ,ソ,so,,,level1
た,letter,た,た,た,タ,ta,,,level1
ち,letter,ち,ち,ち,チ,chi,,,level1
つ,letter,つ,つ,つ,ツ,tsu,っ,ッ,level1
て,letter,て,て,て,テ,te,,,level1
と,letter,と,と,と,ト,to,,,level1
な,letter,な,な,な,ナ,na,,,level1
に,letter,に,に,に,ニ,ni,,,level1
ぬ,letter,ぬ,ぬ,ぬ,ヌ,nu,,,level1
ね,letter,ね,ね,ね,ネ,ne,,,level1
の,letter,の,の,の,ノ,no,,,level1
は,letter,は,は,は,ハ,ha,,,level1
ひ,letter,ひ,ひ,ひ,ヒ,hi,,,level1
ふ,letter,ふ,ふ,ふ,フ,fu,,,level1
へ,letter,へ,へ,へ,ヘ,he,,,level1
ほ,letter,ほ,ほ,ほ,ホ,ho,,,level1
ま,letter,ま,ま,ま,マ,ma,,,level1
み,letter,み,み,み,ミ,mi,,,level1
む,letter,む,む,む,ム,mu,,,level1
め,letter,め,め,め,メ,me,,,level1
も,letter,も,も,も,モ,mo,,,level1
や,letter,や,や,や,ヤ,ya,ゃ,ャ,level1
ゆ,letter,ゆ,ゆ,ゆ,ユ,yu,ゅ,ュ,level1
よ,letter,よ,よ,よ,ヨ,yo,ょ,ョ,level1
ら,letter,ら,ら,ら,ラ,ra,,,level1
り,letter,り,り,り,リ,ri,,,level1
る,letter,る,る,る,ル,ru,,,level1
れ,letter,れ,れ,れ,レ,re,,,level1
ろ,letter,ろ,ろ,ろ,ロ,ro,,,level1
わ,letter,わ,わ,わ,ワ,wa,ゎ,ヮ,level1
を,letter,お,を,を,ヲ,o,,,level1
ん,letter,ん,ん,ん,ン,n,,,level1
が,letter,が,が,が,ガ,ga,,,level2
ぎ,letter,ぎ,ぎ,ぎ,ギ,gi,,,level2
ぐ,letter,ぐ,ぐ,ぐ,グ,gu,,,level2
げ,letter,げ,げ,げ,ゲ,ge,,,level2
ご,letter,ご,ご,ご,ゴ,go,,,level2
ざ,letter,ざ,ざ,ざ,ザ,za,,,level2
じ,letter,じ,じ,じ,ジ,ji,,,level2
ず,letter,ず,ず,ず,ズ,zu,,,level2
ぜ,letter,ぜ,ぜ,ぜ,ゼ,ze,,,level2
ぞ,letter,ぞ,ぞ,ぞ,ゾ,zo,,,level2
だ,letter,だ,だ,だ,ダ,da,,,level2
ぢ,letter,じ,ぢ,ぢ,ヂ,ji,,,level2
づ,letter,づ,づ,づ,ヅ,zu,,,level2
で,letter,で,で,で,デ,de,,,level2
ど,letter,ど,ど,ど,ド,do,,,level2
ば,letter,ば,ば,ば,バ,ba,,,level2
び,letter,び,び,び,ビ,bi,,,level2
ぶ,letter,ぶ,ぶ,ぶ,ブ,bu,,,level2
べ,letter,べ,べ,べ,ベ,be,,,level2
ぼ,letter,ぼ,ぼ,ぼ,ボ,bo,,,level2
ぱ,letter,ぱ,ぱ,ぱ,パ,pa,,,level2
ぴ,letter,ぴ,ぴ,ぴ,ピ,pi,,,level2
ぷ,letter,ぷ,ぷ,ぷ,プ,pu,,,level2
ぺ,letter,ぺ,ぺ,ぺ,ペ,pe,,,level2
ぽ,letter,ぽ,ぽ,ぽ,ポ,po,,,level2
きゃ,letter,きゃ,きゃ,きゃ,キャ,kya,,,level3
きゅ,letter,きゅ,きゅ,きゅ,キュ,kyu,,,level3
きょ,letter,きょ,きょ,きょ,キョ,kyo,,,level3
しゃ,letter,しゃ,しゃ,しゃ,シャ,sha,,,level3
しゅ,letter,しゅ,しゅ,しゅ,シュ,shu,,,level3
しょ,letter,しょ,しょ,しょ,ショ,sho,,,level3
ちゃ,letter,ちゃ,ちゃ,ちゃ,チャ,cha,,,level3
ちゅ,letter,ちゅ,ちゅ,ちゅ,チュ,chu,,,level3
ちょ,letter,ちょ,ちょ,ちょ,チョ,cho,,,level3
にゃ,letter,にゃ,にゃ,にゃ,ニャ,nya,,,level3
にゅ,letter,にゅ,にゅ,にゅ,ニュ,nyu,,,level3
にょ,letter,にょ,にょ,にょ,ニョ,nyo,,,level3
ひゃ,letter,ひゃ,ひゃ,ひゃ,ヒャ,hya,,,level3
ひゅ,letter,ひゅ,ひゅ,ひゅ,ヒュ,hyu,,,level3
ひょ,letter,ひょ,ひょ,ひょ,ヒョ,hyo,,,level3
みゃ,letter,みゃ,みゃ,みゃ,ミャ,mya,,,level3
みゅ,letter,みゅ,みゅ,みゅ,ミュ,myu,,,level3
みょ,letter,みょ,みょ,みょ,ミョ,myo,,,level3
りゃ,letter,りゃ,りゃ,りゃ,リャ,rya,,,level3
りゅ,letter,りゅ,りゅ,りゅ,リュ,ryu,,,level3
りょ,letter,りょ,りょ,りょ,リョ,ryo,,,level3
ぎゃ,letter,ぎゃ,ぎゃ,ぎゃ,ギャ,gya,,,level3
ぎゅ,letter,ぎゅ,ぎゅ,ぎゅ,ギュ,gyu,,,level3
ぎょ,letter,ぎょ,ぎょ,ぎょ,ギョ,gyo,,,level3
じゃ,letter,じゃ,じゃ,じゃ,ジャ,ja,,,level3
じゅ,letter,じゅ,じゅ,じゅ,ジュ,ju,,,level3
じょ,letter,じょ,じょ,じょ,ジョ,jo,,,level3
ぢゃ,letter,じゃ,ぢゃ,ぢゃ,ヂャ,ja,,,level3
ぢゅ,letter,じゅ,ぢゅ,ぢゅ,ヂュ,ju,,,level3
ぢょ,letter,じょ,ぢょ,ぢょ,ヂョ,jo,,,level3
びゃ,letter,びゃ,びゃ,びゃ,ビャ,bya,,,level3
びゅ,letter,びゅ,びゅ,びゅ,ビュ,byu,,,level3
びょ,letter,びょ,びょ,びょ,ビョ,byo,,,level3
ぴゃ,letter,ぴゃ,ぴゃ,ぴゃ,ピャ,pya,,,level3
ぴゅ,letter,ぴゅ,ぴゅ,ぴゅ,ピュ,pyu,,,level3
ぴょ,letter,ぴょ,ぴょ,ぴょ,ピョ,pyo,,,level3
